2019-12-16 10:26:21Sheet ArrayArray
(
    [id] => 987654
    [title] => 10ct Yellow Gold 12mm Diamond Cut Sleeper Earrings
    [body_html] => 10ct Yellow Gold 12mm Diamond Cut Sleeper Earrings
    [tags] => Sleeper Earrings
    [product_type] => Earrings
    [options] => Array
        (
            [0] => Array
                (
                    [name] => Weight
                    [position] => 1
                )

            [1] => Array
                (
                    [name] => Height
                    [position] => 2
                )

            [2] => Array
                (
                    [name] => Width
                    [position] => 3
                )

        )

    [variants] => Array
        (
            [0] => Array
                (
                    [id] => 987654
                    [parent_id] => 987654
                    [option1] => 2
                    [option2] => 16
                    [option3] => 16
                    [inventory_management] => shopify
                    [price] => 21
                    [inventory_quantity] => 9
                    [presentment_prices] => Array
                        (
                            [price] => Array
                                (
                                    [currency_code] => GBP
                                    [amount] => 21
                                )

                        )

                )

        )

)
Sheet product id987654product id exists into databaseArray
(
)
Shopify product Id4419478290477<br>